…
```r
# remove spaces from variable names
names(wc) <- make.names(names(wc))
# reduce dataset to just columns I will be using
wc <- select(wc, c("Year", "Stage", "Home.Team.Name", "Away.Team.Name", "Home.Team.Goals", "Away.Team.Goals", "Win.conditions", "Attendance"))
# check changes
wc
```

```
## # A tibble: 4,572 × 8
##     Year Stage   Home.Team.Name Away.Team.Name Home.Te…¹ Away.…² Win.c…³ Atten…⁴
##    <dbl> <chr>   <chr>          <chr>              <dbl>   <dbl> <chr>     <dbl>
##  1  1930 Group 1 France         Mexico                 4       1 <NA>       4444
##  2  1930 Group 4 USA            Belgium                3       0 <NA>      18346
##  3  1930 Group 2 Yugoslavia     Brazil                 2       1 <NA>      24059
##  4  1930 Group 3 Romania        Peru                   3       1 <NA>       2549
##  5  1930 Group 1 Argentina      France                 1       0 <NA>      23409
##  6  1930 Group 1 Chile          Mexico                 3       0 <NA>       9249
##  7  1930 Group 2 Yugoslavia     Bolivia                4       0 <NA>      18306
##  8  1930 Group 4 USA            Paraguay               3       0 <NA>      18306
##  9  1930 Group 3 Uruguay        Peru                   1       0 <NA>      57735
## 10  1930 Group 1 Chile          France                 1       0 <NA>       2000
## # … with 4,562 more rows, and abbreviated variable names ¹​Home.Team.Goals,
## #   ²​Away.Team.Goals, ³​Win.conditions, ⁴​Attendance
```

I noticed some rows were repeated


```r
# remove duplicate rows
wc <- distinct(wc)
# remove a row of just NA
wc <- wc[-837,]
wc
```

```
## # A tibble: 836 × 8
##     Year Stage   Home.Team.Name Away.Team.Name Home.Te…¹ Away.…² Win.c…³ Atten…⁴
##    <dbl> <chr>   <chr>          <chr>              <dbl>   <dbl> <chr>     <dbl>
##  1  1930 Group 1 France         Mexico                 4       1 <NA>       4444
##  2  1930 Group 4 USA            Belgium                3       0 <NA>      18346
##  3  1930 Group 2 Yugoslavia     Brazil                 2       1 <NA>      24059
##  4  1930 Group 3 Romania        Peru                   3       1 <NA>       2549
##  5  1930 Group 1 Argentina      France                 1       0 <NA>      23409
##  6  1930 Group 1 Chile          Mexico                 3       0 <NA>       9249
##  7  1930 Group 2 Yugoslavia     Bolivia                4       0 <NA>      18306
##  8  1930 Group 4 USA            Paraguay               3       0 <NA>      18306
##  9  1930 Group 3 Uruguay        Peru                   1       0 <NA>      57735
## 10  1930 Group 1 Chile          France                 1       0 <NA>       2000
## # … with 826 more rows, and abbreviated variable names ¹​Home.Team.Goals,
## #   ²​Away.Team.Goals, ³​Win.conditions, ⁴​Attendance
```
…
