…
```
##           Age           M.F          City         State Official.Time 
##             0             0             0             0             0 
##       Overall        Gender 
##             0             0
```

```r
# check data
flMar
```

```
## # A tibble: 609 × 7
##      Age M.F   City             State Official.Time Overall Gender
##    <dbl> <chr> <chr>            <chr> <time>          <dbl>  <dbl>
##  1    45 M     Orlando          FL    02:34:40           94     84
##  2    36 M     Miami            FL    02:35:44          104     92
##  3    36 M     Jacksonville     FL    02:36:40          122    106
##  4    29 M     Jacksonville     FL    02:40:03          188    167
##  5    24 M     Neptune Beach    FL    02:46:56          416    386
##  6    38 M     Miami Beach      FL    02:47:06          424    393
##  7    37 M     Tallahassee      FL    02:47:31          448    417
##  8    27 M     Miami            FL    02:47:35          453    421
##  9    30 M     Jacksonville     FL    02:49:21          536    499
## 10    34 M     Saint Petersburg FL    02:49:31          549    512
## # … with 599 more rows
```
…
```r
# add county name to marathon data check for failed matches
left_join(flMar, flCities, c("City" = "city")) %>% 
  filter(is.na(county_name)) 
```

```
## # A tibble: 67 × 8
##      Age M.F   City             State Official.Time Overall Gender county_name
##    <dbl> <chr> <chr>            <chr> <time>          <dbl>  <dbl> <chr>      
##  1    34 M     Saint Petersburg FL    02:49:31          549    512 <NA>       
##  2    43 M     St Petersburg    FL    02:52:16          711    669 <NA>       
##  3    42 F     Lowell           FL    03:03:01         1772    120 <NA>       
##  4    39 M     Land O Lakes     FL    03:09:06         2626   2392 <NA>       
##  5    40 M     Saint Augustine  FL    03:15:53         3833   3377 <NA>       
##  6    47 M     St Johns         FL    03:16:03         3861   3399 <NA>       
##  7    37 M     Lake Worth       FL    03:16:30         3950   3470 <NA>       
##  8    36 M     Port Saint Lucie FL    03:19:24         4533   3913 <NA>       
##  9    41 M     Saint Johns      FL    03:20:00         4654   4005 <NA>       
## 10    41 F     Saint Petersburg FL    03:25:21         5812    988 <NA>       
## # … with 57 more rows
```
…
These cities were not found in the flCities data. Due to time constraints and the small amount of these cities with missing counties, their county will not be manually found and added.


```r
# add counties to marathon data for rows with city matches
flMarCounties <- inner_join(flMar, flCities, c("City" = "city"))
# change county column name to match flCounties country column
flMarCounties <- rename(flMarCounties,  "COUNTYNAME" = "county_name")
flMarCounties
```

```
## # A tibble: 575 × 8
##      Age M.F   City           State Official.Time Overall Gender COUNTYNAME
##    <dbl> <chr> <chr>          <chr> <time>          <dbl>  <dbl> <chr>     
##  1    45 M     Orlando        FL    02:34:40           94     84 Orange    
##  2    36 M     Miami          FL    02:35:44          104     92 Miami-Dade
##  3    36 M     Jacksonville   FL    02:36:40          122    106 Duval     
##  4    29 M     Jacksonville   FL    02:40:03          188    167 Duval     
##  5    24 M     Neptune Beach  FL    02:46:56          416    386 Duval     
##  6    38 M     Miami Beach    FL    02:47:06          424    393 Miami-Dade
##  7    37 M     Tallahassee    FL    02:47:31          448    417 Leon      
##  8    27 M     Miami          FL    02:47:35          453    421 Miami-Dade
##  9    30 M     Jacksonville   FL    02:49:21          536    499 Duval     
## 10    34 M     St. Petersburg FL    02:49:31          549    512 Pinellas  
## # … with 565 more rows
```
…
```r
# add the counties from the shapefile that had no runners and put a 0 for their number of runners.
flMarCounties <- flMarCounties %>% 
  group_by(COUNTYNAME) %>% 
  summarise(n = n()) %>% 
  right_join(flCounties, "COUNTYNAME") %>% 
  mutate(n = ifelse(is.na(n), 0, n)) %>% 
  select(c("COUNTYNAME", "n"))
arrange(flMarCounties, desc(n))
```

```
## # A tibble: 67 × 2
##    COUNTYNAME       n
##    <chr>        <dbl>
##  1 Miami-Dade      82
##  2 Hillsborough    48
##  3 Palm Beach      47
##  4 Orange          46
##  5 Broward         41
##  6 Duval           38
##  7 Pinellas        32
##  8 Pasco           22
##  9 Seminole        19
## 10 Brevard         18
## # … with 57 more rows
```
…
